﻿id,condition,roomT,TCT,nb_warning,nb_teleportation,walking,rot
5,1,0,38720.4,1,2,18.0535157,2357.404893
5,1,0,35336.5,10,2,26.25850326,2342.782782
5,1,0,41048.8,0,2,19.54134597,2098.687796
5,1,0,35163.9,2,2,14.85563492,2205.154142
5,1,1,32416.1,1,2,8.507106781,1945.899656
5,1,1,40522.8,2,3,16.27279221,2168.623353
5,1,1,26542.6,2,2,11.14852814,1536.80564
5,1,1,26192,0,3,9.082842712,1598.857623
4,1,1,68208.8,1,3,17.73847763,2672.31102
4,1,1,69732.9,3,5,13.78994949,3196.759801
4,1,1,56536.6,1,3,10.93137085,2823.49985
4,1,1,73586.7,0,2,19.43137085,3185.88527
4,1,0,63970.7,0,2,14.46568542,2945.480952
4,1,0,59666.9,0,2,15.80710678,3044.853112
4,1,0,51514,0,2,14.23137085,2823.172077
4,1,0,47306.3,0,2,14.40710678,3003.751968
10,1,1,46917.21,5,3,18.14142136,3495.263318
10,1,1,41088.74,3,3,8.741421356,2572.54053
10,1,1,64338.2,6,3,19.64640892,4425.410705
10,1,1,72352.7,3,4,9.3,3926.031018
10,1,0,40199.6,0,2,15.50710678,2788.152183
10,1,0,36393.5,0,2,15.48994949,2912.590616
10,1,0,48988.8,1,3,25.2535157,3888.270444
10,1,0,42860.4,2,2,18.42426407,2842.534602
11,1,0,40363.6,0,2,8.607106781,2517.102427
11,1,0,44046,1,2,17.94640892,3038.699982
11,1,0,48992.1,2,3,14.38783027,3233.19402
11,1,0,47661.8,2,4,11.2,3836.931461
11,1,1,29974.6,1,3,11.61421356,1999.890664
11,1,1,39130.5,4,4,20.72925163,2489.140544
11,1,1,33870,5,4,5.941421356,2190.929949
11,1,1,40165.4,2,4,11.54142136,2342.132523
3,2,1,145722.2,4,10,22.88783027,4673.534496
3,2,1,86194.2,4,7,16.66568542,3422.217781
3,2,1,67931.1,1,5,17.52426407,3019.65392
3,2,1,61885.3,0,6,11.83137085,3108.197505
3,2,0,41397.8,0,2,17.43137085,2775.174104
3,2,0,42569.5,0,2,16.71421356,3063.388082
3,2,0,43259.9,0,2,12.38284271,3004.376086
3,2,0,48881.3,0,2,13.81421356,2791.831856
2,2,1,47154.9,0,2,6.082842712,3418.362012
2,2,1,43223.2,1,2,13.64142136,3299.015124
2,2,1,49967.2,1,2,11.2,3137.400124
2,2,1,67919.4,5,2,28.83635841,4005.814933
2,2,0,51188.6,1,2,19.53137085,3630.736279
2,2,0,45727.6,0,2,15.42426407,3474.969358
2,2,0,60831.2,0,2,22.42426407,4169.071006
2,2,0,36779.5,1,2,10.7,2763.768412
9,0,1,64409.4,4,5,28.02426407,3354.347053
9,0,1,85803.9,6,9,39.78064811,4207.12187
9,0,1,75936.3,9,8,24.59493706,4049.10217
9,0,1,68349.6,6,6,26.79705627,3980.393164
9,0,0,58038.3,4,7,15.98994949,2994.536571
9,0,0,65057.7,5,9,22.68994949,2834.557049
9,0,0,69713.6,9,8,23.51209434,3045.46007
9,0,0,55018.8,7,7,25.04640892,3229.832384
8,0,1,40421.02,0,13,9.782842712,2765.668389
8,0,1,73167.32,1,19,11.9,3328.096707
8,0,1,60659,1,17,7.724264069,3051.559817
8,0,1,54440.9,0,18,7.341421356,2738.091439
8,0,0,49001.6,0,14,8.124264069,2750.090786
8,0,0,44905.9,1,12,7.141421356,2234.994572
8,0,0,43128.4,1,12,9.224264069,2347.27636
8,0,0,48735.6,1,14,8.482842712,2477.526358
3,0,1,84792.38,14,15,27.7,4078.116025
3,0,1,132864.1,19,29,33.17067299,5415.457318
3,0,1,94490.5,14,12,29.61209434,4618.468913
3,0,1,90652.4,5,23,13.4,3760.489819
3,0,0,74864,0,17,5.8,2959.33408
3,0,0,101408.6,14,15,29.59705627,4863.573171
3,0,0,82465.5,8,10,20.64142136,3573.423614
3,0,0,142261.4,22,26,38.02132034,4742.790611
2,0,1,38103.41,2,3,11.98994949,2470.777678
2,0,1,47662.81,2,4,11.54142136,2363.50698
2,0,1,50431.2,3,3,16,3601.937004
2,0,1,48950.5,4,7,10.94142136,3074.009749
2,0,0,36120.4,0,13,5.5,2589.27278
2,0,0,51003,1,11,8.6,3269.355476
2,0,0,49604.1,2,6,12.84142136,3339.196764
2,0,0,59835.8,2,5,14.24142136,3822.197598
8,2,0,43458.9,1,3,13.44640892,2945.617908
8,2,0,41494.42,1,4,6.8,2193.223137
8,2,0,40856.2,0,3,7.365685425,2436.66046
8,2,0,42588.6,1,5,10.64142136,2841.091543
8,2,1,29264.9,0,2,9.6,2313.43076
8,2,1,28852.5,0,2,10.08284271,2512.266355
8,2,1,25518.2,0,2,9.241421356,2406.7351
8,2,1,27924.2,0,2,10.64142136,2465.337975
9,2,0,49437.6,0,3,15.97279221,2551.470841
9,2,0,53454.4,1,4,12.54852814,3394.559231
9,2,0,57032.8,2,5,16.72426407,2751.857726
9,2,0,67621.7,3,6,18.67989899,4641.633067
9,2,1,53135.4,0,2,18.06062248,3319.492501
9,2,1,44761,0,2,19.43847763,2699.474769
9,2,1,41236.9,0,2,15.07279221,2601.224024
9,2,1,44516.1,1,2,17.87279221,2578.266743
4,2,1,29401.54,0,3,9.948528137,2028.568416
4,2,1,44795.11,1,4,8.2,2639.453745
4,2,1,43208.8,1,3,8.465685425,2458.559062
4,2,1,40999.7,0,4,12.37279221,3314.785596
4,2,0,33111.7,0,2,10.86568542,2369.891448
4,2,0,33141.7,0,2,11.65563492,2507.263848
4,2,0,31346.1,0,2,9.607106781,2588.107726
4,2,0,33287.2,0,2,12.63137085,2405.539168
5,2,1,32756.8,0,3,14.74558441,2097.017459
5,2,1,41932.3,0,7,9.365685425,2465.10575
5,2,1,42263.8,1,4,13.97279221,2113.673373
5,2,1,52969.6,1,7,17.43137085,2630.646432
5,2,0,40273.3,0,2,19.02925163,2343.651112
5,2,0,40671.3,0,2,20.90416306,2779.208305
5,2,0,37254.7,0,2,15.27279221,2521.066198
5,2,0,37075.4,0,2,21.28700577,2344.691818
11,0,0,72335.3,5,21,17.88994949,4874.624167
11,0,0,52189.6,2,22,10.04142136,4128.415948
11,0,0,50591.3,2,21,7,3671.947932
11,0,0,47620.5,3,19,6.8,4251.547183
11,0,1,44872.9,6,14,7.7,3270.682064
11,0,1,43011.5,5,18,5.882842712,3275.267185
11,0,1,33865.8,3,9,8.5,2790.977514
11,0,1,38884.2,0,17,5.3,2864.689184
10,0,0,44987.5,1,9,14.46568542,2580.782664
10,0,0,91780.1,13,25,33.24142136,4272.51917
10,0,0,51712.7,4,5,19.06568542,3100.28956
10,0,0,53672.2,5,5,23.69705627,3383.140132
10,0,1,53946,6,11,19.87279221,2761.787166
10,0,1,55140.9,13,9,19.43137085,2899.135254
10,0,1,39479.3,2,8,14.08284271,2005.153547
10,0,1,49222.2,4,8,15.18284271,3007.565292
5,0,0,72728.1,6,18,18.00997512,3345.702679
5,0,0,55209.9,1,16,19.24852814,3390.964309
5,0,0,47081,3,13,12.8,2518.217159
5,0,0,42953.8,1,14,12.6,2929.877365
5,0,1,37929.1,0,8,10.81920112,2011.429672
5,0,1,43184.2,0,11,8.7,2389.736664
5,0,1,52332,2,11,23.33423919,2494.527174
5,0,1,41558.9,0,12,9.1,1983.935688
4,0,0,49014.73,0,14,11.86568542,3073.622019
4,0,0,66867.8,5,15,15.74852814,3147.013579
4,0,0,54449.6,4,15,14.03847763,3260.1886
4,0,0,65906.5,0,18,12.02426407,3332.89298
4,0,1,58952.9,3,11,19.28994949,3522.756585
4,0,1,51837.3,2,5,15.36568542,3235.577985
4,0,1,44759.6,3,8,15.84852814,2256.365184
4,0,1,41068.8,1,5,12.54142136,2135.21828
10,2,1,38557.4,1,3,11.50710678,2400.901538
10,2,1,43984.7,1,4,7.6,2224.988429
10,2,1,44684.1,2,3,15.97067299,2876.891876
10,2,1,58294.6,3,6,22.51421356,3588.685587
10,2,0,29481.4,0,2,14.60138657,2628.314062
10,2,0,33035.3,0,4,15.08700577,2644.740736
10,2,0,32479.1,0,2,12.36568542,2689.424167
10,2,0,32996.2,0,2,15.63847763,2747.176845
11,2,1,47623.1,1,8,15.44852814,3222.975684
11,2,1,47795.1,0,7,11.62426407,3061.752062
11,2,1,70092.8,2,10,18.68569123,3046.541187
11,2,1,68410.2,2,9,21.66707199,3814.122226
11,2,0,60240.3,2,2,20.48284271,3475.422357
11,2,0,57156.5,0,2,17.12132034,3498.675868
11,2,0,45822.9,0,2,11.46568542,2993.762159
11,2,0,42760.1,0,3,12.26568542,2942.267005
2,1,0,56231.7,0,2,17.13137085,3707.315811
2,1,0,48790.8,0,2,15.50710678,3904.673253
2,1,0,53266,0,2,19.26568542,4100.999986
2,1,0,31839,0,2,13.62132034,2723.061787
2,1,1,35821.2,0,4,7.682842712,2454.784347
2,1,1,44485.7,1,3,14.93847763,2921.338148
2,1,1,32745.3,0,3,10.74852814,2197.948142
2,1,1,34023,0,3,12.44142136,2787.435696
3,1,0,47613.5,3,3,15.88284271,2743.598905
3,1,0,49871.4,2,3,14.84852814,2678.103587
3,1,0,47341.9,3,3,10.80710678,2925.599915
3,1,0,66069.1,4,5,11.74852814,3923.997399
3,1,1,77724.9,1,7,24.94640892,3470.456394
3,1,1,59157.6,0,2,14.82925163,3220.319389
3,1,1,66453,1,3,19.93137085,3256.353904
3,1,1,61478.8,0,2,14.54852814,3003.309792
9,1,0,48457.9,3,3,17.6,2733.321634
9,1,0,49618.5,3,4,16.72426407,3111.509281
9,1,0,64450.2,7,5,17.84142136,3838.227941
9,1,0,72501.3,5,5,21.68783027,3793.636164
9,1,1,75593.4,8,5,21,3704.041801
9,1,1,50129.1,3,2,20.78284271,3082.086837
9,1,1,46154.3,2,2,15.9,2698.923376
9,1,1,43185.9,1,2,14.08284271,2715.388927
8,1,1,41168.74,0,2,12.84852814,2723.137212
8,1,1,44815.62,0,2,12.92426407,2712.900263
8,1,1,40867.2,0,2,11.93137085,2275.68785
8,1,1,36197.8,0,2,7.424264069,2307.727216
8,1,0,26417.9,0,1,11.50710678,1863.963548
8,1,0,26438.4,1,2,9.641421356,1946.536511
8,1,0,24133.1,1,2,2.4,1706.540883
8,1,0,32537.6,1,3,10.00710678,2019.43437
1,0,0,110577,0,19,19.63137085,4036.520485
1,0,0,96689.5,2,23,13.9,4144.629022
1,0,0,77457.7,0,19,6.9,4056.576696
1,0,0,79383.4,0,22,9.282842712,3668.47855
1,0,1,78489.9,1,21,7.3,3664.77203
1,0,1,72084.1,0,19,0.2,3488.260977
1,0,1,75731.5,1,19,2.6,3771.355665
1,0,1,62535.9,0,11,1,2488.589052
1,2,0,46115,0,3,13.3,2755.4867
1,2,0,49296.9,0,2,17.9,2728.515566
1,2,0,45766.2,0,2,16.18284271,2790.287955
1,2,0,50820.6,0,2,18.18284271,3040.756637
1,2,1,64111.7,1,5,9.041421356,2753.888611
1,2,1,68738.1,2,4,20.36568542,3222.497888
1,2,1,43877.3,1,3,16.28284271,2434.351724
1,2,1,52143,0,3,13.96568542,2292.425546
12,1,0,36324.8,0,2,13.38994949,2489.462172
12,1,0,48784.9,2,3,25.84134597,3408.528729
12,1,0,35759.3,0,2,11.58284271,2593.166607
12,1,0,35533.9,0,2,10.98994949,2781.182391
12,1,1,49641.2,3,4,18.26568542,3100.924425
12,1,1,49377.5,2,3,15.76568542,2619.657084
12,1,1,29564.4,0,2,7.424264069,1735.712051
12,1,1,50085.4,2,2,11.02426407,3024.774839
6,1,0,35873.5,0,2,11.48284271,2435.37889
6,1,0,39061.6,0,3,14.64852814,2473.977407
6,1,0,37552.7,1,3,11.42426407,3629.169301
6,1,0,29198.5,0,2,7.041421356,1535.276709
6,1,1,38425.6,4,3,13.8,2470.887876
6,1,1,61615,7,2,16.58284271,2519.77574
6,1,1,49796.2,0,2,5.741421356,2500.32796
6,1,1,49348,0,2,5.7,2985.659414
7,1,1,48285.6,0,4,15.34640892,2264.204152
7,1,1,36489.6,1,4,12.14142136,2473.406811
7,1,1,44407.2,1,4,12.8,2510.835607
7,1,1,56482.9,1,5,22.68284271,3821.846245
7,1,0,38679.6,0,3,14.82426407,2376.50464
7,1,0,32155.4,1,3,13.88284271,2443.550471
7,1,0,35684.7,0,3,10.94142136,2271.810432
7,1,0,31078,0,2,9.724264069,2754.883502
1,1,1,47630,0,5,20.34142136,2436.279782
1,1,1,42550.6,0,5,11.28284271,2293.620971
1,1,1,52777.9,0,11,4.341421356,2770.065353
1,1,1,54713.4,2,5,17.78284271,3094.380058
1,1,0,61739.4,0,2,15.70197648,2917.299176
1,1,0,72480.1,2,6,20.38284271,3572.744246
1,1,0,64476.3,4,4,19.12426407,3362.25149
1,1,0,58757,1,3,14.04142136,2855.206939
7,0,0,135210.4,4,70,26.30710678,5564.996824
7,0,0,100839.2,3,67,19,4737.717703
7,0,0,86295.2,0,69,6,4134.434046
7,0,0,115175.2,0,100,4,4174.410278
7,0,1,97825,0,84,0.8,5153.004479
7,0,1,107068.5,0,70,4.3,5266.27613
7,0,1,82973.2,0,65,0.1,3030.71566
7,0,1,85302.7,0,56,1.6,3668.648548
6,0,1,63881.72,0,21,7.2,3421.924527
6,0,1,51410.4,0,16,5.3,2977.924896
6,0,1,93177.9,8,20,6.8,3359.855654
6,0,1,68043,7,20,5.6,3584.759691
6,0,0,67342.7,0,19,3.4,2980.007825
6,0,0,78754,3,16,8.64947066,2865.074079
6,0,0,63679.6,5,23,3.6,3038.056899
6,0,0,61893.6,5,22,10.9,3557.693318
12,2,1,56053.1,4,6,19.96568542,2775.420574
12,2,1,59245,5,6,17.34142136,4433.453525
12,2,1,47680.7,5,4,12.5,2871.044851
12,2,1,65155.4,6,9,24.14640892,3716.150795
12,2,0,32288.7,0,2,14.22426407,2844.951902
12,2,0,33183.5,1,2,14.84142136,3118.915458
12,2,0,35767.6,0,5,12.54142136,3115.688464
12,2,0,32021,0,1,16.66568542,2682.944031
12,0,1,50377.25,8,10,16.4,3752.762447
12,0,1,33341.4,0,12,5.624264069,2016.68224
12,0,1,46099.7,0,16,5.7,3305.459653
12,0,1,52379.7,1,20,10.6,3836.79263
12,0,0,54310.6,2,25,10.80498756,3910.42101
12,0,0,45140.5,0,18,0.6,2458.489639
12,0,0,39996.4,2,18,7.2,3195.02043
12,0,0,42758.7,0,22,2.6,2626.791593
6,2,1,44479.5,2,4,13.69705627,2504.265797
6,2,1,40755.3,0,3,9.165685425,2681.817542
6,2,1,48659.6,1,4,12.38994949,2714.555562
6,2,1,96968.7,7,8,29.21421356,4490.550014
6,2,0,27823.8,0,2,9.207106781,2627.362685
6,2,0,29443.4,0,4,15.90056206,2837.158644
6,2,0,34134.9,0,2,12.24787087,2769.62486
6,2,0,30405,2,3,18.26772926,3312.939632
7,2,0,32461.4,0,3,14.89705627,2835.534788
7,2,0,31049.1,0,2,18.17279221,2778.99932
7,2,0,27525.3,0,2,16.86062248,2605.73142
7,2,0,29914.9,0,3,16.67279221,2605.118311
7,2,1,42366.7,1,5,9.041421356,2375.833049
7,2,1,44923.6,1,6,15.61920112,2785.371625
7,2,1,50248.6,1,4,18.23553391,3387.891331
7,2,1,45215.5,0,4,13.34852814,2593.6507